{
    "page": 1,
    "per_page": 15,
    "photos": [
        {
            "id": 2853592,
            "width": 3637,
            "height": 5456,
            "url": "https://www.pexels.com/photo/photo-of-woman-near-chain-link-fence-2853592/",
            "photographer": "Alvin Caal",
            "photographer_url": "https://www.pexels.com/@alvincaal",
            "photographer_id": 1452819,
            "avg_color": "#8C7368",
            "src": {
                "original": "https://images.pexels.com/photos/2853592/pexels-photo-2853592.jpeg",
                "large2x": "https://images.pexels.com/photos/2853592/pexels-photo-2853592.jpeg?auto=compress\u0026cs=tinysrgb\u0026dpr=2\u0026h=650\u0026w=940",
                "large": "https://images.pexels.com/photos/2853592/pexels-photo-2853592.jpeg?auto=compress\u0026cs=tinysrgb\u0026h=650\u0026w=940",
                "medium": "https://images.pexels.com/photos/2853592/pexels-photo-2853592.jpeg?auto=compress\u0026cs=tinysrgb\u0026h=350",
                "small": "https://images.pexels.com/photos/2853592/pexels-photo-2853592.jpeg?auto=compress\u0026cs=tinysrgb\u0026h=130",
                "portrait": "https://images.pexels.com/photos/2853592/pexels-photo-2853592.jpeg?auto=compress\u0026cs=tinysrgb\u0026fit=crop\u0026h=1200\u0026w=800",
                "landscape": "https://images.pexels.com/photos/2853592/pexels-photo-2853592.jpeg?auto=compress\u0026cs=tinysrgb\u0026fit=crop\u0026h=627\u0026w=1200",
                "tiny": "https://images.pexels.com/photos/2853592/pexels-photo-2853592.jpeg?auto=compress\u0026cs=tinysrgb\u0026dpr=1\u0026fit=crop\u0026h=200\u0026w=280"
            },
            "liked": false,
            "alt": "Photo Of Woman Near Chain Link Fence"
        },
        {
            "id": 1484806,
            "width": 2592,
            "height": 3240,
            "url": "https://www.pexels.com/photo/photo-of-man-using-his-cellphone-1484806/",
            "photographer": "Jimmy Jimmy",
            "photographer_url": "https://www.pexels.com/@jimmyjimmy",
            "photographer_id": 421830,
            "avg_color": "#A7A0A6",
            "src": {
                "original": "https://images.pexels.com/photos/1484806/pexels-photo-1484806.jpeg",
                "large2x": "https://images.pexels.com/photos/1484806/pexels-photo-1484806.jpeg?auto=compress\u0026cs=tinysrgb\u0026dpr=2\u0026h=650\u0026w=940",
                "large": "https://images.pexels.com/photos/1484806/pexels-photo-1484806.jpeg?auto=compress\u0026cs=tinysrgb\u0026h=650\u0026w=940",
                "medium": "https://images.pexels.com/photos/1484806/pexels-photo-1484806.jpeg?auto=compress\u0026cs=tinysrgb\u0026h=350",
                "small": "https://images.pexels.com/photos/1484806/pexels-photo-1484806.jpeg?auto=compress\u0026cs=tinysrgb\u0026h=130",
                "portrait": "https://images.pexels.com/photos/1484806/pexels-photo-1484806.jpeg?auto=compress\u0026cs=tinysrgb\u0026fit=crop\u0026h=1200\u0026w=800",
                "landscape": "https://images.pexels.com/photos/1484806/pexels-photo-1484806.jpeg?auto=compress\u0026cs=tinysrgb\u0026fit=crop\u0026h=627\u0026w=1200",
                "tiny": "https://images.pexels.com/photos/1484806/pexels-photo-1484806.jpeg?auto=compress\u0026cs=tinysrgb\u0026dpr=1\u0026fit=crop\u0026h=200\u0026w=280"
            },
            "liked": false,
            "alt": "Photo of Man Using His Cellphone"
        },
        {
            "id": 1486213,
            "width": 2160,
            "height": 3240,
            "url": "https://www.pexels.com/photo/photo-of-woman-wearing-eyeglasses-1486213/",
            "photographer": "Ogo",
            "photographer_url": "https://www.pexels.com/@simplyogo",
            "photographer_id": 623586,
            "avg_color": "#B3A9A3",
            "src": {
                "original": "https://images.pexels.com/photos/1486213/pexels-photo-1486213.jpeg",
                "large2x": "https://images.pexels.com/photos/1486213/pexels-photo-1486213.jpeg?auto=compress\u0026cs=tinysrgb\u0026dpr=2\u0026h=650\u0026w=940",
                "large": "https://images.pexels.com/photos/1486213/pexels-photo-1486213.jpeg?auto=compress\u0026cs=tinysrgb\u0026h=650\u0026w=940",
                "medium": "https://images.pexels.com/photos/1486213/pexels-photo-1486213.jpeg?auto=compress\u0026cs=tinysrgb\u0026h=350",
                "small": "https://images.pexels.com/photos/1486213/pexels-photo-1486213.jpeg?auto=compress\u0026cs=tinysrgb\u0026h=130",
                "portrait": "https://images.pexels.com/photos/1486213/pexels-photo-1486213.jpeg?auto=compress\u0026cs=tinysrgb\u0026fit=crop\u0026h=1200\u0026w=800",
                "landscape": "https://images.pexels.com/photos/1486213/pexels-photo-1486213.jpeg?auto=compress\u0026cs=tinysrgb\u0026fit=crop\u0026h=627\u0026w=1200",
                "tiny": "https://images.pexels.com/photos/1486213/pexels-photo-1486213.jpeg?auto=compress\u0026cs=tinysrgb\u0026dpr=1\u0026fit=crop\u0026h=200\u0026w=280"
            },
            "liked": false,
            "alt": "Photo of Woman Wearing Eyeglasses"
        },
        {
            "id": 2230015,
            "width": 5760,
            "height": 3840,
            "url": "https://www.pexels.com/photo/coupe-smiling-2230015/",
            "photographer": "Terrillo Walls",
            "photographer_url": "https://www.pexels.com/@terrillo-walls-19460",
            "photographer_id": 19460,
            "avg_color": "#99A197",
            "src": {
                "original": "https://images.pexels.com/photos/2230015/pexels-photo-2230015.jpeg",
                "large2x": "https://images.pexels.com/photos/2230015/pexels-photo-2230015.jpeg?auto=compress\u0026cs=tinysrgb\u0026dpr=2\u0026h=650\u0026w=940",
                "large": "https://images.pexels.com/photos/2230015/pexels-photo-2230015.jpeg?auto=compress\u0026cs=tinysrgb\u0026h=650\u0026w=940",
                "medium": "https://images.pexels.com/photos/2230015/pexels-photo-2230015.jpeg?auto=compress\u0026cs=tinysrgb\u0026h=350",
                "small": "https://images.pexels.com/photos/2230015/pexels-photo-2230015.jpeg?auto=compress\u0026cs=tinysrgb\u0026h=130",
                "portrait": "https://images.pexels.com/photos/2230015/pexels-photo-2230015.jpeg?auto=compress\u0026cs=tinysrgb\u0026fit=crop\u0026h=1200\u0026w=800",
                "landscape": "https://images.pexels.com/photos/2230015/pexels-photo-2230015.jpeg?auto=compress\u0026cs=tinysrgb\u0026fit=crop\u0026h=627\u0026w=1200",
                "tiny": "https://images.pexels.com/photos/2230015/pexels-photo-2230015.jpeg?auto=compress\u0026cs=tinysrgb\u0026dpr=1\u0026fit=crop\u0026h=200\u0026w=280"
            },
            "liked": false,
            "alt": "Coupe Smiling"
        },
        {
            "id": 1250643,
            "width": 4966,
            "height": 3317,
            "url": "https://www.pexels.com/photo/woman-riding-skateboard-at-the-road-1250643/",
            "photographer": "Vidal Balielo Jr.",
            "photographer_url": "https://www.pexels.com/@vidalbalielojrfotografia",
            "photographer_id": 519095,
            "avg_color": "#BDAE9F",
            "src": {
                "original": "https://images.pexels.com/photos/1250643/pexels-photo-1250643.jpeg",
                "large2x": "https://images.pexels.com/photos/1250643/pexels-photo-1250643.jpeg?auto=compress\u0026cs=tinysrgb\u0026dpr=2\u0026h=650\u0026w=940",
                "large": "https://images.pexels.com/photos/1250643/pexels-photo-1250643.jpeg?auto=compress\u0026cs=tinysrgb\u0026h=650\u0026w=940",
                "medium": "https://images.pexels.com/photos/1250643/pexels-photo-1250643.jpeg?auto=compress\u0026cs=tinysrgb\u0026h=350",
                "small": "https://images.pexels.com/photos/1250643/pexels-photo-1250643.jpeg?auto=compress\u0026cs=tinysrgb\u0026h=130",
                "portrait": "https://images.pexels.com/photos/1250643/pexels-photo-1250643.jpeg?auto=compress\u0026cs=tinysrgb\u0026fit=crop\u0026h=1200\u0026w=800",
                "landscape": "https://images.pexels.com/photos/1250643/pexels-photo-1250643.jpeg?auto=compress\u0026cs=tinysrgb\u0026fit=crop\u0026h=627\u0026w=1200",
                "tiny": "https://images.pexels.com/photos/1250643/pexels-photo-1250643.jpeg?auto=compress\u0026cs=tinysrgb\u0026dpr=1\u0026fit=crop\u0026h=200\u0026w=280"
            },
            "liked": false,
            "alt": "Woman Riding Skateboard at the Road"
        },
        {
            "id": 3628700,
            "width": 4000,
            "height": 6000,
            "url": "https://www.pexels.com/photo/dad-holding-a-little-girl-3628700/",
            "photographer": "Streetwindy",
            "photographer_url": "https://www.pexels.com/@streetwindy",
            "photographer_id": 258084,
            "avg_color": "#9F9798",
            "src": {
                "original": "https://images.pexels.com/photos/3628700/pexels-photo-3628700.jpeg",
                "large2x": "https://images.pexels.com/photos/3628700/pexels-photo-3628700.jpeg?auto=compress\u0026cs=tinysrgb\u0026dpr=2\u0026h=650\u0026w=940",
                "large": "https://images.pexels.com/photos/3628700/pexels-photo-3628700.jpeg?auto=compress\u0026cs=tinysrgb\u0026h=650\u0026w=940",
                "medium": "https://images.pexels.com/photos/3628700/pexels-photo-3628700.jpeg?auto=compress\u0026cs=tinysrgb\u0026h=350",
                "small": "https://images.pexels.com/photos/3628700/pexels-photo-3628700.jpeg?auto=compress\u0026cs=tinysrgb\u0026h=130",
                "portrait": "https://images.pexels.com/photos/3628700/pexels-photo-3628700.jpeg?auto=compress\u0026cs=tinysrgb\u0026fit=crop\u0026h=1200\u0026w=800",
                "landscape": "https://images.pexels.com/photos/3628700/pexels-photo-3628700.jpeg?auto=compress\u0026cs=tinysrgb\u0026fit=crop\u0026h=627\u0026w=1200",
                "tiny": "https://images.pexels.com/photos/3628700/pexels-photo-3628700.jpeg?auto=compress\u0026cs=tinysrgb\u0026dpr=1\u0026fit=crop\u0026h=200\u0026w=280"
            },
            "liked": false,
            "alt": "Dad Holding a Little Girl"
        },
        {
            "id": 3732667,
            "width": 4000,
            "height": 6000,
            "url": "https://www.pexels.com/photo/woman-in-slip-dress-sitting-on-object-3732667/",
            "photographer": "Anna Shvets",
            "photographer_url": "https://www.pexels.com/@shvetsa",
            "photographer_id": 1984515,
            "avg_color": "#8F8F8F",
            "src": {
                "original": "https://images.pexels.com/photos/3732667/pexels-photo-3732667.jpeg",
                "large2x": "https://images.pexels.com/photos/3732667/pexels-photo-3732667.jpeg?auto=compress\u0026cs=tinysrgb\u0026dpr=2\u0026h=650\u0026w=940",
                "large": "https://images.pexels.com/photos/3732667/pexels-photo-3732667.jpeg?auto=compress\u0026cs=tinysrgb\u0026h=650\u0026w=940",
                "medium": "https://images.pexels.com/photos/3732667/pexels-photo-3732667.jpeg?auto=compress\u0026cs=tinysrgb\u0026h=350",
                "small": "https://images.pexels.com/photos/3732667/pexels-photo-3732667.jpeg?auto=compress\u0026cs=tinysrgb\u0026h=130",
                "portrait": "https://images.pexels.com/photos/3732667/pexels-photo-3732667.jpeg?auto=compress\u0026cs=tinysrgb\u0026fit=crop\u0026h=1200\u0026w=800",
                "landscape": "https://images.pexels.com/photos/3732667/pexels-photo-3732667.jpeg?auto=compress\u0026cs=tinysrgb\u0026fit=crop\u0026h=627\u0026w=1200",
                "tiny": "https://images.pexels.com/photos/3732667/pexels-photo-3732667.jpeg?auto=compress\u0026cs=tinysrgb\u0026dpr=1\u0026fit=crop\u0026h=200\u0026w=280"
            },
            "liked": false,
            "alt": "Woman in Slip Dress Sitting on Object"
        },
        {
            "id": 4006576,
            "width": 1825,
            "height": 2738,
            "url": "https://www.pexels.com/photo/woman-in-white-button-up-shirt-wearing-headdress-4006576/",
            "photographer": "Arianna Jadé",
            "photographer_url": "https://www.pexels.com/@viscoseillusion",
            "photographer_id": 1458659,
            "avg_color": "#A49795",
            "src": {
                "original": "https://images.pexels.com/photos/4006576/pexels-photo-4006576.jpeg",
                "large2x": "https://images.pexels.com/photos/4006576/pexels-photo-4006576.jpeg?auto=compress\u0026cs=tinysrgb\u0026dpr=2\u0026h=650\u0026w=940",
                "large": "https://images.pexels.com/photos/4006576/pexels-photo-4006576.jpeg?auto=compress\u0026cs=tinysrgb\u0026h=650\u0026w=940",
                "medium": "https://images.pexels.com/photos/4006576/pexels-photo-4006576.jpeg?auto=compress\u0026cs=tinysrgb\u0026h=350",
                "small": "https://images.pexels.com/photos/4006576/pexels-photo-4006576.jpeg?auto=compress\u0026cs=tinysrgb\u0026h=130",
                "portrait": "https://images.pexels.com/photos/4006576/pexels-photo-4006576.jpeg?auto=compress\u0026cs=tinysrgb\u0026fit=crop\u0026h=1200\u0026w=800",
                "landscape": "https://images.pexels.com/photos/4006576/pexels-photo-4006576.jpeg?auto=compress\u0026cs=tinysrgb\u0026fit=crop\u0026h=627\u0026w=1200",
                "tiny": "https://images.pexels.com/photos/4006576/pexels-photo-4006576.jpeg?auto=compress\u0026cs=tinysrgb\u0026dpr=1\u0026fit=crop\u0026h=200\u0026w=280"
            },
            "liked": false,
            "alt": "Woman in White Button Up Shirt Wearing Headdress"
        },
        {
            "id": 4057758,
            "width": 6000,
            "height": 4000,
            "url": "https://www.pexels.com/photo/an-old-woman-using-a-laptop-4057758/",
            "photographer": "cottonbro studio",
            "photographer_url": "https://www.pexels.com/@cottonbro",
            "photographer_id": 1437723,
            "avg_color": "#ABA3A4",
            "src": {
                "original": "https://images.pexels.com/photos/4057758/pexels-photo-4057758.jpeg",
                "large2x": "https://images.pexels.com/photos/4057758/pexels-photo-4057758.jpeg?auto=compress\u0026cs=tinysrgb\u0026dpr=2\u0026h=650\u0026w=940",
                "large": "https://images.pexels.com/photos/4057758/pexels-photo-4057758.jpeg?auto=compress\u0026cs=tinysrgb\u0026h=650\u0026w=940",
                "medium": "https://images.pexels.com/photos/4057758/pexels-photo-4057758.jpeg?auto=compress\u0026cs=tinysrgb\u0026h=350",
                "small": "https://images.pexels.com/photos/4057758/pexels-photo-4057758.jpeg?auto=compress\u0026cs=tinysrgb\u0026h=130",
                "portrait": "https://images.pexels.com/photos/4057758/pexels-photo-4057758.jpeg?auto=compress\u0026cs=tinysrgb\u0026fit=crop\u0026h=1200\u0026w=800",
                "landscape": "https://images.pexels.com/photos/4057758/pexels-photo-4057758.jpeg?auto=compress\u0026cs=tinysrgb\u0026fit=crop\u0026h=627\u0026w=1200",
                "tiny": "https://images.pexels.com/photos/4057758/pexels-photo-4057758.jpeg?auto=compress\u0026cs=tinysrgb\u0026dpr=1\u0026fit=crop\u0026h=200\u0026w=280"
            },
            "liked": false,
            "alt": "An Old Woman Using A Laptop"
        },
        {
            "id": 1181424,
            "width": 4016,
            "height": 6016,
            "url": "https://www.pexels.com/photo/woman-smiling-and-holding-teal-book-1181424/",
            "photographer": "Christina Morillo",
            "photographer_url": "https://www.pexels.com/@divinetechygirl",
            "photographer_id": 473730,
            "avg_color": "#A5919C",
            "src": {
                "original": "https://images.pexels.com/photos/1181424/pexels-photo-1181424.jpeg",
                "large2x": "https://images.pexels.com/photos/1181424/pexels-photo-1181424.jpeg?auto=compress\u0026cs=tinysrgb\u0026dpr=2\u0026h=650\u0026w=940",
                "large": "https://images.pexels.com/photos/1181424/pexels-photo-1181424.jpeg?auto=compress\u0026cs=tinysrgb\u0026h=650\u0026w=940",
                "medium": "https://images.pexels.com/photos/1181424/pexels-photo-1181424.jpeg?auto=compress\u0026cs=tinysrgb\u0026h=350",
                "small": "https://images.pexels.com/photos/1181424/pexels-photo-1181424.jpeg?auto=compress\u0026cs=tinysrgb\u0026h=130",
                "portrait": "https://images.pexels.com/photos/1181424/pexels-photo-1181424.jpeg?auto=compress\u0026cs=tinysrgb\u0026fit=crop\u0026h=1200\u0026w=800",
                "landscape": "https://images.pexels.com/photos/1181424/pexels-photo-1181424.jpeg?auto=compress\u0026cs=tinysrgb\u0026fit=crop\u0026h=627\u0026w=1200",
                "tiny": "https://images.pexels.com/photos/1181424/pexels-photo-1181424.jpeg?auto=compress\u0026cs=tinysrgb\u0026dpr=1\u0026fit=crop\u0026h=200\u0026w=280"
            },
            "liked": false,
            "alt": "Woman Smiling and Holding Teal Book"
        },
        {
            "id": 1181579,
            "width": 4016,
            "height": 6016,
            "url": "https://www.pexels.com/photo/women-in-black-dress-reading-book-1181579/",
            "photographer": "Christina Morillo",
            "photographer_url": "https://www.pexels.com/@divinetechygirl",
            "photographer_id": 473730,
            "avg_color": "#938E87",
            "src": {
                "original": "https://images.pexels.com/photos/1181579/pexels-photo-1181579.jpeg",
                "large2x": "https://images.pexels.com/photos/1181579/pexels-photo-1181579.jpeg?auto=compress\u0026cs=tinysrgb\u0026dpr=2\u0026h=650\u0026w=940",
                "large": "https://images.pexels.com/photos/1181579/pexels-photo-1181579.jpeg?auto=compress\u0026cs=tinysrgb\u0026h=650\u0026w=940",
                "medium": "https://images.pexels.com/photos/1181579/pexels-photo-1181579.jpeg?auto=compress\u0026cs=tinysrgb\u0026h=350",
                "small": "https://images.pexels.com/photos/1181579/pexels-photo-1181579.jpeg?auto=compress\u0026cs=tinysrgb\u0026h=130",
                "portrait": "https://images.pexels.com/photos/1181579/pexels-photo-1181579.jpeg?auto=compress\u0026cs=tinysrgb\u0026fit=crop\u0026h=1200\u0026w=800",
                "landscape": "https://images.pexels.com/photos/1181579/pexels-photo-1181579.jpeg?auto=compress\u0026cs=tinysrgb\u0026fit=crop\u0026h=627\u0026w=1200",
                "tiny": "https://images.pexels.com/photos/1181579/pexels-photo-1181579.jpeg?auto=compress\u0026cs=tinysrgb\u0026dpr=1\u0026fit=crop\u0026h=200\u0026w=280"
            },
            "liked": false,
            "alt": "Women in Black Dress Reading Book"
        },
        {
            "id": 4064423,
            "width": 3333,
            "height": 5000,
            "url": "https://www.pexels.com/photo/woman-sitting-on-wheelchair-while-touching-her-cat-4064423/",
            "photographer": "Marcus Aurelius",
            "photographer_url": "https://www.pexels.com/@marcus-aurelius",
            "photographer_id": 2416479,
            "avg_color": "#83807D",
            "src": {
                "original": "https://images.pexels.com/photos/4064423/pexels-photo-4064423.jpeg",
                "large2x": "https://images.pexels.com/photos/4064423/pexels-photo-4064423.jpeg?auto=compress\u0026cs=tinysrgb\u0026dpr=2\u0026h=650\u0026w=940",
                "large": "https://images.pexels.com/photos/4064423/pexels-photo-4064423.jpeg?auto=compress\u0026cs=tinysrgb\u0026h=650\u0026w=940",
                "medium": "https://images.pexels.com/photos/4064423/pexels-photo-4064423.jpeg?auto=compress\u0026cs=tinysrgb\u0026h=350",
                "small": "https://images.pexels.com/photos/4064423/pexels-photo-4064423.jpeg?auto=compress\u0026cs=tinysrgb\u0026h=130",
                "portrait": "https://images.pexels.com/photos/4064423/pexels-photo-4064423.jpeg?auto=compress\u0026cs=tinysrgb\u0026fit=crop\u0026h=1200\u0026w=800",
                "landscape": "https://images.pexels.com/photos/4064423/pexels-photo-4064423.jpeg?auto=compress\u0026cs=tinysrgb\u0026fit=crop\u0026h=627\u0026w=1200",
                "tiny": "https://images.pexels.com/photos/4064423/pexels-photo-4064423.jpeg?auto=compress\u0026cs=tinysrgb\u0026dpr=1\u0026fit=crop\u0026h=200\u0026w=280"
            },
            "liked": false,
            "alt": "Woman Sitting on Wheelchair While Touching Her Cat"
        },
        {
            "id": 4259140,
            "width": 5000,
            "height": 3337,
            "url": "https://www.pexels.com/photo/family-making-breakfast-in-the-kitchen-4259140/",
            "photographer": "August de Richelieu",
            "photographer_url": "https://www.pexels.com/@august-de-richelieu",
            "photographer_id": 2508036,
            "avg_color": "#968A81",
            "src": {
                "original": "https://images.pexels.com/photos/4259140/pexels-photo-4259140.jpeg",
                "large2x": "https://images.pexels.com/photos/4259140/pexels-photo-4259140.jpeg?auto=compress\u0026cs=tinysrgb\u0026dpr=2\u0026h=650\u0026w=940",
                "large": "https://images.pexels.com/photos/4259140/pexels-photo-4259140.jpeg?auto=compress\u0026cs=tinysrgb\u0026h=650\u0026w=940",
                "medium": "https://images.pexels.com/photos/4259140/pexels-photo-4259140.jpeg?auto=compress\u0026cs=tinysrgb\u0026h=350",
                "small": "https://images.pexels.com/photos/4259140/pexels-photo-4259140.jpeg?auto=compress\u0026cs=tinysrgb\u0026h=130",
                "portrait": "https://images.pexels.com/photos/4259140/pexels-photo-4259140.jpeg?auto=compress\u0026cs=tinysrgb\u0026fit=crop\u0026h=1200\u0026w=800",
                "landscape": "https://images.pexels.com/photos/4259140/pexels-photo-4259140.jpeg?auto=compress\u0026cs=tinysrgb\u0026fit=crop\u0026h=627\u0026w=1200",
                "tiny": "https://images.pexels.com/photos/4259140/pexels-photo-4259140.jpeg?auto=compress\u0026cs=tinysrgb\u0026dpr=1\u0026fit=crop\u0026h=200\u0026w=280"
            },
            "liked": false,
            "alt": "Family Making Breakfast in the Kitchen"
        },
        {
            "id": 3852204,
            "width": 4000,
            "height": 6000,
            "url": "https://www.pexels.com/photo/young-peaceful-black-woman-applying-golden-collagen-eye-patches-3852204/",
            "photographer": "Anna Shvets",
            "photographer_url": "https://www.pexels.com/@shvetsa",
            "photographer_id": 1984515,
            "avg_color": "#775A3D",
            "src": {
                "original": "https://images.pexels.com/photos/3852204/pexels-photo-3852204.jpeg",
                "large2x": "https://images.pexels.com/photos/3852204/pexels-photo-3852204.jpeg?auto=compress\u0026cs=tinysrgb\u0026dpr=2\u0026h=650\u0026w=940",
                "large": "https://images.pexels.com/photos/3852204/pexels-photo-3852204.jpeg?auto=compress\u0026cs=tinysrgb\u0026h=650\u0026w=940",
                "medium": "https://images.pexels.com/photos/3852204/pexels-photo-3852204.jpeg?auto=compress\u0026cs=tinysrgb\u0026h=350",
                "small": "https://images.pexels.com/photos/3852204/pexels-photo-3852204.jpeg?auto=compress\u0026cs=tinysrgb\u0026h=130",
                "portrait": "https://images.pexels.com/photos/3852204/pexels-photo-3852204.jpeg?auto=compress\u0026cs=tinysrgb\u0026fit=crop\u0026h=1200\u0026w=800",
                "landscape": "https://images.pexels.com/photos/3852204/pexels-photo-3852204.jpeg?auto=compress\u0026cs=tinysrgb\u0026fit=crop\u0026h=627\u0026w=1200",
                "tiny": "https://images.pexels.com/photos/3852204/pexels-photo-3852204.jpeg?auto=compress\u0026cs=tinysrgb\u0026dpr=1\u0026fit=crop\u0026h=200\u0026w=280"
            },
            "liked": false,
            "alt": "Crop gentle African American female with closed eyes and clean face enjoying cosmetic procedure for smoothing and moisturizing skin under eyes and removing dark circles"
        },
        {
            "id": 2064826,
            "width": 2736,
            "height": 4104,
            "url": "https://www.pexels.com/photo/man-wearing-brown-hoodie-2064826/",
            "photographer": "Davi Pimentel",
            "photographer_url": "https://www.pexels.com/@davifnr",
            "photographer_id": 1057139,
            "avg_color": "#5B5751",
            "src": {
                "original": "https://images.pexels.com/photos/2064826/pexels-photo-2064826.jpeg",
                "large2x": "https://images.pexels.com/photos/2064826/pexels-photo-2064826.jpeg?auto=compress\u0026cs=tinysrgb\u0026dpr=2\u0026h=650\u0026w=940",
                "large": "https://images.pexels.com/photos/2064826/pexels-photo-2064826.jpeg?auto=compress\u0026cs=tinysrgb\u0026h=650\u0026w=940",
                "medium": "https://images.pexels.com/photos/2064826/pexels-photo-2064826.jpeg?auto=compress\u0026cs=tinysrgb\u0026h=350",
                "small": "https://images.pexels.com/photos/2064826/pexels-photo-2064826.jpeg?auto=compress\u0026cs=tinysrgb\u0026h=130",
                "portrait": "https://images.pexels.com/photos/2064826/pexels-photo-2064826.jpeg?auto=compress\u0026cs=tinysrgb\u0026fit=crop\u0026h=1200\u0026w=800",
                "landscape": "https://images.pexels.com/photos/2064826/pexels-photo-2064826.jpeg?auto=compress\u0026cs=tinysrgb\u0026fit=crop\u0026h=627\u0026w=1200",
                "tiny": "https://images.pexels.com/photos/2064826/pexels-photo-2064826.jpeg?auto=compress\u0026cs=tinysrgb\u0026dpr=1\u0026fit=crop\u0026h=200\u0026w=280"
            },
            "liked": false,
            "alt": "Man Wearing Brown Hoodie"
        }
    ],
    "total_results": 8000,
    "next_page": "https://api.pexels.com/v1/search/?page=2\u0026per_page=15\u0026query=people"
}